{
	"name": "data_connectivity_versioning_irrs",
	"description": "Pipeline that fetches data from nfs and pushes it in pachyderm repo",
	"main_func_params": 
	{
		"##repo##": "",
		"##branch##": "",
		"##commit##":"",
		"##push_description##":"",
		"##nfs_input_path##":"/xpresso_platform_dev/k8/irrs/data/dataxlsx/IT-Incidents-Distinct January and February.xlsx",
		"##local_input_path##":"/data/dataxlsx/",
		"##outpath##":"",
		"##dataset##":"",
		"##table##":"",
		"##columns##":""
	},
	"pvc_size": "2Gi",



	"components": [
		{
	      	"name": "data_connectivity",
			"xpresso_reference": "data_connectivity_job",
	      	"description": "downloads data from nfs or mysql",
	      	"inputs": [
				{
					"name": "inpath",
					"type": "str",
					"description": "input path of the file on nfs"
				},
				{
					"name": "outpath",
					"type": "str",
					"description": "Path where you want to pull the file"
				}
			],

	      	"input_values": {
	        	"##inpath##": "##nfs_input_path##",
	        	"##outpath##": "##outpath##"
	      	},

		  	"outputs": [],

	      	"implementation": {
				"container": {
					"image": "dataconnectivity",
					"command": ["import_raw"],
					"args": [
						"-in",
						{
							"inputValue": "inpath"
						},
						"-out",
						{
							"inputValue": "outpath"
						}
					],
					"fileOutputs": {}
				}
		  	}
		},

		{
	      	"name": "data_versioninig",
			"xpresso_reference": "data_versioning_job",
	      	"description": "Pushes the files in pachyderm cluster",
	      	"inputs": [
				{
					"name": "repo",
					"type": "str",
					"description": "Name of the repo in pachyderm"
				},
				{
					"name": "branch",
					"type": "str",
					"description": "Name of the branch"
				},
				{
					"name": "dataset",
					"type": "str",
					"description": "Name of dataset being pushed"
				},
				{
					"name": "inpath",
					"type": "LocalPath",
					"description": "Local path from where to fetch files to push"
				},
				{
					"name": "desc",
					"type": "str",
					"description": "Description regarding the push "
				}
			],
	      	"input_values": {
	        	"##repo##": "##repo##",
	        	"##branch##": "##branch##",
	        	"##dataset##": "##dataset##",
	        	"##inpath##": "##local_input_path##",
	        	"##desc##": "##push_description##"
	      	},
		  	"outputs": [],

	      	"implementation": {
	      		"container": {
					"image": "dataconnectivity",
					"command": ["put_files"],
					"args": [
						"-r",
						{
							"inputValue": "repo"
						},
						"-b",
						{
							"inputValue": "branch"
						},
						"-d",
						{
							"inputValue": "dataset"
						},
						"-in",
						{
							"inputValue": "inpath"
						},
						"--desc",
						{
							"inputValue": "desc"
						}
					],
					"fileOutputs": {}
				}
		  	}
		}
	],
	"after_dependencies": {"data_versioning":"data_connectivity"}
}